3 Data validation | Data Management for Clinical Researchers
…
3.5 Uniqueness

A critical issue in any data set is that the case identifiers are unique. The violation of uniqueness of identifiers will produce incorrect results when joining tables. In simple tables like demo there is only one identifier, the patient identifier (pid). However, in long-format tables, more identifiers are needed. Consider for instance the structure suggested in table 1.6 to store blood pressure in dataframe bp:

bp <- read_excel("./data/hta.xlsx", sheet = "data") %>%
  select(pid, contains("bp")) %>%
  pivot_longer(sbp_v1:dbp_v6, names_to = "variable") %>%
  na.omit() %>%
  separate(variable, into = c("measure", "visit")) %>%
  pivot_wider(names_from = measure, values_from = value)

bp

# A tibble: 1,519 × 4
     pid visit   sbp   dbp
   <dbl> <chr> <dbl> <dbl>
 1    11 v1      130    80
 2    11 v2      140    80
 3    15 v1      130    80
 4    15 v2      120    80
 5    15 v3      120    90
 6    15 v4      130    90
 7    20 v1      130    85
 8    20 v2      120    80
 9    20 v3      140    80
10    20 v4      130    80
# … with 1,509 more rows
…
Indeed, patient 102 has only the first three visits, and patient 103 lacks visit 2.

3.7 Availability of records

In the previous section we saw how to detect missing rows in a long dataframe were patients are expected to have a fixed number of rows corresponding to a linear sequence of visits. In other cases however, the fixed structure of rows per patient is not that simple. As an example, consider the rather extreme vertical structure for the same example data shown in the previous section:

# A tibble: 24 × 4
     pid visit varname value
   <int> <dbl> <chr>   <dbl>
 1   101     1 sbp       142
 2   101     1 dbp        80
 3   101     2 sbp       136
 4   101     2 dbp        62
 5   101     3 sbp       150
 6   101     3 dbp        80
 7   101     4 sbp       150
 8   101     4 dbp        78
 9   101     5 sbp       144
10   101     5 dbp        80
# … with 14 more rows
…
3.9 Rules stored in files

You may have found surprising that validator() does not allow to specify the dataframe we want to check, so that we need to use confront() to specify it. Wouldn’t it be more efficient to solve the problem with a single function? Maybe, but this design is on purpose, and the reason is to allow re-utilization of rules in different studies.

All studies record demographic and anthropometric data, all clinical trials record comorbidities, adverse events and concomitant medications, and most record vitals signs, or even ECG and laboratory results. For this reason, clinical research units tend to have standard CRFs and data file formats that are reused in different studies with few study-specific modifications. Standardization makes processes not only more efficient, but also more robust, since repeated utilization will show weaknesses that may be optimized for future uses. Writing validation rules is no exception, and standard rules are worth having.

A feature that facilitates the standardization of rules is the possibility of storing them in a file, read this file into a dataframe, and use it to define the rules with validator(). Let’s see how to do it to check some of the demographic variables of DISEHTAE (before defining any factor):

demo <- read_excel("./data/hta.xlsx", sheet = "data") %>%  
  select(pid, age, sex, region, data_xtract_dt, ah_dx_dt) %>% 
  mutate(across(c(data_xtract_dt, ah_dx_dt), as.Date))
demo

# A tibble: 500 × 6
     pid   age   sex region data_xtract_dt ah_dx_dt  
   <dbl> <dbl> <dbl>  <dbl> <date>         <date>    
 1    11    52     1      6 2003-03-15     1998-01-01
 2    15    57     2      6 2003-03-15     1997-01-01
 3    20    62     1      1 2003-05-13     2003-04-10
 4    24    69     2     10 2003-05-27     1993-01-01
 5    33    70     2     10 2003-05-28     1994-01-01
 6    37    64     2      9 2003-06-14     1995-04-07
 7    50    55     2      2 2003-06-16     NA        
 8    83    64     1      5 2004-03-15     1981-01-01
 9    91    57     1      5 2004-03-15     1996-01-01
10   114    73     2      5 2004-04-05     1991-06-04
# … with 490 more rows
…
