2 Working with variables | Data Management for Clinical Researchers
…
To convert these variables to the simpler and more convenient Date class, the as.Date() function may be used in a mutate() statement:

demo %>% 
  mutate(data_xtract_dt = as.Date(data_xtract_dt),
         ah_dx_dt = as.Date(ah_dx_dt))

## # A tibble: 500 × 6
##      pid data_xtract_dt region   age   sex ah_dx_dt  
##    <dbl> <date>          <dbl> <dbl> <dbl> <date>    
##  1    11 2003-03-15          6    52     1 1998-01-01
##  2    15 2003-03-15          6    57     2 1997-01-01
##  3    20 2003-05-13          1    62     1 2003-04-10
##  4    24 2003-05-27         10    69     2 1993-01-01
##  5    33 2003-05-28         10    70     2 1994-01-01
##  6    37 2003-06-14          9    64     2 1995-04-07
##  7    50 2003-06-16          2    55     2 NA        
##  8    83 2004-03-15          5    64     1 1981-01-01
##  9    91 2004-03-15          5    57     1 1996-01-01
## 10   114 2004-04-05          5    73     2 1991-06-04
## # … with 490 more rows

While this is fine because we need to convert two variables only, it may be cumbersome when many variables have to be converted.

2.4.1 Processing several variables at once

When several variables have to be processed the same way, a better approach is to use across() within mutate(). The across() function takes two arguments. This first argument indicates the variables to be processed, and the second argument specifies the function to be applied to these variables:

demo %>% 
  mutate(across(c(data_xtract_dt, ah_dx_dt), as.Date))

## # A tibble: 500 × 6
##      pid data_xtract_dt region   age   sex ah_dx_dt  
##    <dbl> <date>          <dbl> <dbl> <dbl> <date>    
##  1    11 2003-03-15          6    52     1 1998-01-01
##  2    15 2003-03-15          6    57     2 1997-01-01
##  3    20 2003-05-13          1    62     1 2003-04-10
##  4    24 2003-05-27         10    69     2 1993-01-01
##  5    33 2003-05-28         10    70     2 1994-01-01
##  6    37 2003-06-14          9    64     2 1995-04-07
##  7    50 2003-06-16          2    55     2 NA        
##  8    83 2004-03-15          5    64     1 1981-01-01
##  9    91 2004-03-15          5    57     1 1996-01-01
## 10   114 2004-04-05          5    73     2 1991-06-04
## # … with 490 more rows

In the first argument, helper functions can be used just like with select():

demo %>% 
  mutate(across(ends_with("dt"), as.Date))

## # A tibble: 500 × 6
##      pid data_xtract_dt region   age   sex ah_dx_dt  
##    <dbl> <date>          <dbl> <dbl> <dbl> <date>    
##  1    11 2003-03-15          6    52     1 1998-01-01
##  2    15 2003-03-15          6    57     2 1997-01-01
##  3    20 2003-05-13          1    62     1 2003-04-10
##  4    24 2003-05-27         10    69     2 1993-01-01
##  5    33 2003-05-28         10    70     2 1994-01-01
##  6    37 2003-06-14          9    64     2 1995-04-07
##  7    50 2003-06-16          2    55     2 NA        
##  8    83 2004-03-15          5    64     1 1981-01-01
##  9    91 2004-03-15          5    57     1 1996-01-01
## 10   114 2004-04-05          5    73     2 1991-06-04
## # … with 490 more rows
…
treatments <- read_excel("./data/hta.xlsx", sheet = "data") %>%
  select(pid, lmr:other) 

treatments %>% 
  mutate(lmr = factor(lmr, levels = 1:2, labels = c("yes", "no")),
         bb = factor(bb, levels = 1:2, labels = c("yes", "no")),
         diur = factor(diur, levels = 1:2, labels = c("yes", "no")),
         acei = factor(acei, levels = 1:2, labels = c("yes", "no")),
         arb = factor(arb, levels = 1:2, labels = c("yes", "no")),
         cbb = factor(cbb, levels = 1:2, labels = c("yes", "no")),
         ab = factor(ab, levels = 1:2, labels = c("yes", "no")),
         other = factor(other, levels = 1:2, labels = c("yes", "no")))

## # A tibble: 500 × 9
##      pid lmr   bb    diur  acei  arb   cbb   ab    other
##    <dbl> <fct> <fct> <fct> <fct> <fct> <fct> <fct> <fct>
##  1    11 yes   yes   no    no    no    no    no    no   
##  2    15 yes   no    no    yes   no    no    no    no   
##  3    20 yes   no    no    no    no    no    no    no   
##  4    24 yes   no    yes   no    no    no    no    no   
##  5    33 yes   no    yes   no    no    no    no    no   
##  6    37 yes   no    yes   no    yes   no    no    no   
##  7    50 no    no    no    no    no    no    no    no   
##  8    83 yes   no    no    no    no    no    no    yes  
##  9    91 yes   no    no    yes   no    no    no    no   
## 10   114 yes   no    yes   no    yes   no    no    no   
## # … with 490 more rows

Using across(), we need to pass the factor function as second argument, and the levels and labels arguments as further arguments:

treatments %>% 
  mutate(across(lmr:other, factor, levels = 1:2, labels = c("yes", "no")))

## # A tibble: 500 × 9
##      pid lmr   bb    diur  acei  arb   cbb   ab    other
##    <dbl> <fct> <fct> <fct> <fct> <fct> <fct> <fct> <fct>
##  1    11 yes   yes   no    no    no    no    no    no   
##  2    15 yes   no    no    yes   no    no    no    no   
##  3    20 yes   no    no    no    no    no    no    no   
##  4    24 yes   no    yes   no    no    no    no    no   
##  5    33 yes   no    yes   no    no    no    no    no   
##  6    37 yes   no    yes   no    yes   no    no    no   
##  7    50 no    no    no    no    no    no    no    no   
##  8    83 yes   no    no    no    no    no    no    yes  
##  9    91 yes   no    no    yes   no    no    no    no   
## 10   114 yes   no    yes   no    yes   no    no    no   
## # … with 490 more rows

Sometimes we may want to identify the variables to be processed by their type. For instance, suppose that diagnostic variables had been defined as logical variables, as is the case in dataframe diag below:

## # A tibble: 500 × 6
##      pid   age   sex dx_dm dx_dyslip dx_lvh
##    <dbl> <dbl> <dbl> <lgl> <lgl>     <lgl> 
##  1    11    52     1 TRUE  TRUE      TRUE  
##  2    15    57     2 TRUE  TRUE      TRUE  
##  3    20    62     1 TRUE  TRUE      TRUE  
##  4    24    69     2 TRUE  FALSE     TRUE  
##  5    33    70     2 TRUE  FALSE     TRUE  
##  6    37    64     2 FALSE TRUE      TRUE  
##  7    50    55     2 TRUE  NA        TRUE  
##  8    83    64     1 TRUE  FALSE     TRUE  
##  9    91    57     1 TRUE  FALSE     TRUE  
## 10   114    73     2 FALSE FALSE     TRUE  
## # … with 490 more rows

Suppose we want to convert them to numeric with as.numeric(). This can be done using where() in the first argument of across() to identify all variables being of logical type, and as.numeric as the second argument:

diag %>% 
  mutate(across(where(is.logical), as.numeric))

## # A tibble: 500 × 6
##      pid   age   sex dx_dm dx_dyslip dx_lvh
##    <dbl> <dbl> <dbl> <dbl>     <dbl>  <dbl>
##  1    11    52     1     1         1      1
##  2    15    57     2     1         1      1
##  3    20    62     1     1         1      1
##  4    24    69     2     1         0      1
##  5    33    70     2     1         0      1
##  6    37    64     2     0         1      1
##  7    50    55     2     1        NA      1
##  8    83    64     1     1         0      1
##  9    91    57     1     1         0      1
## 10   114    73     2     0         0      1
## # … with 490 more rows

If the operation we need to perform is complex and there is no single function to do it, we can use an expression preceeded by ~, and use .x to indicate where the variable in across is used. For example, supose we want to recode all drug treatments as 1 or 0 instead of 1 or 2 (for yes or no, respectively). This will work:

treatments %>% 
  mutate(across(bb:other, ~ ifelse(.x == 1, 1, 0)))

## # A tibble: 500 × 9
##      pid   lmr    bb  diur  acei   arb   cbb    ab other
##    <dbl> <dbl> <dbl> <dbl> <dbl> <dbl> <dbl> <dbl> <dbl>
##  1    11     1     1     0     0     0     0     0     0
##  2    15     1     0     0     1     0     0     0     0
##  3    20     1     0     0     0     0     0     0     0
##  4    24     1     0     1     0     0     0     0     0
##  5    33     1     0     1     0     0     0     0     0
##  6    37     1     0     1     0     1     0     0     0
##  7    50     2     0     0     0     0     0     0     0
##  8    83     1     0     0     0     0     0     0     1
##  9    91     1     0     0     1     0     0     0     0
## 10   114     1     0     1     0     1     0     0     0
## # … with 490 more rows
…
